%YAML 1.1
%TAG !u! tag:unity3d.com,2011:
--- !u!1045 &1
EditorBuildSettings:
  m_ObjectHideFlags: 0
  serializedVersion: 2
  m_Scenes:
  - enabled: 1
    path: Assets/Scene/Scene.GameOpen.unity
    guid: 39a91f8dc2438394eb4e05ec0a3ea4df
  - enabled: 1
    path: Assets/Scene/SceneClassroom.unity
    guid: 70c143c9a66bb0841b0ec0aebf523351
